## RankBoost
## Iteration = 100
## No. of threshold candidates = 10
4:0.2927981853485109:0.47548920363286384 4:0.8812336206436159:0.32991436356987514 5:-0.14504963159561157:0.3168212030238063 4:-0.8840726852416991:0.25497160702954624 4:0.8812336206436159:0.22839759013354222 4:-0.2956372499465941:0.19217497700313677 5:-0.6350980997085571:0.17715606538144474 4:0.8812336206436159:0.15361654264832275 3:-0.6689492344856263:0.1548558339329197 4:-0.8840726852416991:0.14945364573900036 5:-0.6350980997085571:0.12843035561911773 1:-0.5009665489196777:0.12333700008848063 4:-0.8840726852416991:0.10704046145919802 3:-0.6689492344856263:0.10962949579607953 4:0.8812336206436159:0.10303512542346407 2:0.27264432907104497:0.1004275700892373 4:-0.8840726852416991:0.08410906369434411 5:-0.6350980997085571:0.07871780290591275 3:-0.6689492344856263:0.07391018461880809 4:0.8812336206436159:0.07368527541748489 2:-1.3493903875350952:0.06576984310200636 4:-0.8840726852416991:0.06293788264013156 1:-0.5009665489196777:0.05761500719034061 2:-1.3493903875350952:0.05571585150426329 3:-0.6689492344856263:0.051738088973393354 4:-0.8840726852416991:0.050521687090273944 4:0.8812336206436159:0.04855043692842717 2:-1.3493903875350952:0.04761341661346811 4:-1.472508120536804:0.045024978134959474 2:0.27264432907104497:0.042442510695223916 4:-1.472508120536804:0.03961822903717656 5:-1.1251465678215027:0.03608124647978657 3:-0.6689492344856263:0.03612337912047659 4:0.8812336206436159:0.03570782443854302 4:-1.472508120536804:0.034797545142577234 1:3.376386880874634:0.03499468725351825 1:3.376386880874634:0.03325062743948493 2:-1.3493903875350952:0.0327785508324184 1:3.376386880874634:0.032058945238921256 4:-1.472508120536804:0.031762786253787006 1:3.376386880874634:0.030895611544137058 1:3.376386880874634:0.029424683838651804 4:-1.472508120536804:0.029510750502834925 2:-1.3493903875350952:0.02845898873118836 1:3.376386880874634:0.02876400155973744 1:3.376386880874634:0.02742562237070752 4:-1.472508120536804:0.02665968186953578 1:3.376386880874634:0.02648013734761297 4:0.2927981853485109:0.025924278856115757 1:3.376386880874634:0.02551254246816644 2:-1.3493903875350952:0.02541689281176446 3:-0.6689492344856263:0.02498208483207505 1:3.376386880874634:0.024668486920661054 4:-1.472508120536804:0.024110663156013803 1:3.376386880874634:0.02384611834733744 1:-0.5009665489196777:0.022941314771908507 2:-1.3493903875350952:0.022849106947454057 1:3.376386880874634:0.022627781933966928 4:-1.472508120536804:0.022044184810856852 1:3.376386880874634:0.021891264014288852 1:3.376386880874634:0.02094524471749168 2:0.27264432907104497:0.02101424590503037 1:3.376386880874634:0.02033064908974044 4:-1.472508120536804:0.020356328159542175 4:0.8812336206436159:0.019904588097721478 4:-2.060943555831909:0.019749747268847442 1:3.376386880874634:0.019705847859062445 4:-2.060943555831909:0.019182172616956133 1:3.376386880874634:0.01893744576004213 2:-1.3493903875350952:0.018835508012302216 4:-2.060943555831909:0.018513187461742537 1:3.376386880874634:0.018429222883836496 4:1.4696690559387209:0.018041827908742473 4:-2.060943555831909:0.017999851900484636 1:3.376386880874634:0.01774970804456444 4:-0.8840726852416991:0.01750926307836496 3:-0.6689492344856263:0.017845505507608616 4:1.4696690559387209:0.017514238257484 4:-2.060943555831909:0.01738259620185375 1:3.376386880874634:0.01723989325456445 4:-2.060943555831909:0.016908749833330492 4:1.4696690559387209:0.016898698440879788 1:3.376386880874634:0.016615302868465007 2:-1.3493903875350952:0.016787142895550708 4:-2.060943555831909:0.016354427344768486 4:1.4696690559387209:0.01629769672397976 1:3.376386880874634:0.016214974173456003 4:-2.060943555831909:0.015921796196956495 4:1.4696690559387209:0.015729143192765267 1:3.376386880874634:0.01563452525016005 4:-2.060943555831909:0.015503684689682554 4:1.4696690559387209:0.015183538898404987 1:3.376386880874634:0.015079085525725346 2:-1.3493903875350952:0.01520295588203139 4:-2.060943555831909:0.015013827692000523 1:3.376386880874634:0.014697241907885262 4:1.4696690559387209:0.014679595145209239 4:-2.060943555831909:0.014627169339590492 4:-2.060943555831909:0.014202691898160022 1:3.376386880874634:0.014230004836023451